Beer Taxation Report in US
…
Next, we looked at the pattern of ABV by beer’s brewer.

As there are 823 brewers listed in our dataset, we will show the top 20 that has the highest average ABV, rather than all of them.

Mendocino Brewing - Ukiah has the highest average ABV.

There are 424 brewers having average ABV value of 0.

brewer_abv = 
  beer %>% 
  group_by(brewer) %>% 
  summarise(mean_abv = mean(alcohol_by_volume)) %>% 
  arrange(desc(mean_abv))
brewer_abv
## # A tibble: 823 x 2
##    brewer                        mean_abv
##    <chr>                            <dbl>
##  1 Mendocino Brewing - Ukiah        10.5 
##  2 Avery Brewing Company            10.5 
##  3 Foothills Brewing Company        10   
##  4 Dogfish Head Craft Brewery        9.78
##  5 Voodoo Brewing Co.,LLC            9.60
##  6 High Point Wheat Beer Company     9.5 
##  7 Brewery Vivant                    9.25
##  8 Oso                               9.20
##  9 Oregon Trail Brewery              9.10
## 10 Independence Brewing Co           9   
## # … with 813 more rows
…
By style

Finally, we looked at the pattern of ABV by beer’s style.

There are 62 styles listed in our dataset, and we will show the top 20 that has the highest average ABV, as well as the lowest 5.

We can see that Belgian-Style Quadrupel has the higherst average ABV while both Vienna-Style Lager and Specialty Honey Lager or Ale has average ABV of 0.

style_abv = 
  beer %>% 
  group_by(style) %>% 
  summarise(mean_abv = mean(alcohol_by_volume)) %>% 
  arrange(desc(mean_abv))
style_abv
## # A tibble: 62 x 2
##    style                             mean_abv
##    <chr>                                <dbl>
##  1 Belgian-Style Quadrupel              11.7 
##  2 Strong Ale                           11.2 
##  3 American-Style Barley Wine Ale        9.96
##  4 American-Style Imperial Stout         9.77
##  5 Belgian-Style Dark Strong Ale         9.67
##  6 Imperial or Double Red Ale            9.20
##  7 Specialty Beer                        8.75
##  8 American-Style India Black Ale        8.70
##  9 Belgian-Style Pale Strong Ale         8.63
## 10 Imperial or Double India Pale Ale     8.58
## # … with 52 more rows
…
